{"data":[{"access_token":"access_token","category":"Phone/Tablet","category_list":[{"id":"2265","name":"Phone/Tablet"}],"name":"AAAAAAAAA","id":"123","tasks":["ANALYZE","ADVERTISE","MESSAGING","MODERATE","CREATE_CONTENT","MANAGE"]},{"access_token":"access_token","category":"Musician/Band","category_list":[{"id":"180164648685982","name":"Musician/Band"}],"name":"BBBBBBBB","id":"1234","tasks":["ANALYZE","ADVERTISE","MESSAGING","MODERATE","CREATE_CONTENT","MANAGE"]},{"access_token":"access_token","category":"Shopping & Retail","category_list":[{"id":"200600219953504","name":"Shopping & Retail"},{"id":"2201","name":"Product/Service"}],"name":"EEEEEEEE","id":"123512","tasks":["ANALYZE","ADVERTISE","MESSAGING","MODERATE","CREATE_CONTENT","MANAGE"]},{"access_token":"access_token","category":"TV Show","category_list":[{"id":"1400","name":"TV Show"}],"name":"FFFFFFFFFF","id":"1234624","tasks":["ANALYZE","ADVERTISE","MESSAGING","MODERATE","CREATE_CONTENT","MANAGE"]}],"paging":{"cursors":{"before":"before","after":"after"},"next":"https://graph.facebook.com/v11.0/413140042878187/accounts?access_token=access_token&pretty=0&summary=1&limit=4&after=after"},"summary":{"total_count":6}}