{
  "data": [
    {
      "created_time": "2019-12-16T12:09:40+0000",
      "can_like": true,
      "from": {
        "name": "Kun Liu",
        "id": "2711636948859886"
      },
      "message": "Good job!😏",
      "attachment": {
        "media": {
          "image": {
            "height": 474,
            "src": "https://scontent.xx.fbcdn.net/v/t1.0-9/80295560_516040909254766_1429720438753198080_n.jpg?_nc_cat=100&_nc_oc=AQnLVD4nFSoiHzy5avANWll2LDcu1pLxcS0ZSgZ1jHfLkH6Y1IQT3vTdKKIqqETYS84&_nc_ht=scontent.xx&oh=296cc062d2b3f30a98514f0e1ec89b8a&oe=5E706DB7",
            "width": 474
          }
        },
        "target": {
          "id": "516040902588100",
          "url": "https://www.facebook.com/photo.php?fbid=516040902588100&set=p.516040902588100&type=3"
        },
        "type": "photo",
        "url": "https://www.facebook.com/photo.php?fbid=516040902588100&set=p.516040902588100&type=3"
      },
      "like_count": 2,
      "permalink_url": "https://www.facebook.com/2121008874780932/posts/2498598377021978/?comment_id=2498617433686739",
      "id": "2498598377021978_2498617433686739",
      "comment_count": 0,
      "can_comment": true
    },
    {
      "created_time": "2019-12-17T03:43:50+0000",
      "can_like": true,
      "from": {
        "name": "杨佳名",
        "id": "2493785114046685"
      },
      "message": "中午要吃俩鸡腿？",
      "like_count": 0,
      "permalink_url": "https://www.facebook.com/2121008874780932/posts/2498598377021978/?comment_id=2499265936955222",
      "id": "2498598377021978_2499265936955222",
      "comment_count": 0,
      "can_comment": true
    },
    {
      "created_time": "2019-12-27T10:34:42+0000",
      "can_like": true,
      "from": {
        "name": "Kun Liu",
        "id": "2711636948859886"
      },
      "message": "reply",
      "like_count": 1,
      "permalink_url": "https://www.facebook.com/2121008874780932/posts/2498598377021978/?comment_id=2509257345956081",
      "id": "2498598377021978_2509257345956081",
      "comment_count": 0,
      "can_comment": true
    },
    {
      "created_time": "2019-12-27T10:34:47+0000",
      "can_like": true,
      "from": {
        "name": "Kun Liu",
        "id": "2711636948859886"
      },
      "message": "More Reply",
      "like_count": 0,
      "permalink_url": "https://www.facebook.com/2121008874780932/posts/2498598377021978/?comment_id=2509257472622735",
      "id": "2498598377021978_2509257472622735",
      "comment_count": 0,
      "can_comment": true
    },
    {
      "created_time": "2019-12-27T10:34:56+0000",
      "can_like": true,
      "from": {
        "name": "Kun Liu",
        "id": "2711636948859886"
      },
      "message": "hey",
      "like_count": 0,
      "permalink_url": "https://www.facebook.com/2121008874780932/posts/2498598377021978/?comment_id=2509257622622720",
      "id": "2498598377021978_2509257622622720",
      "comment_count": 0,
      "can_comment": true
    }
  ],
  "paging": {
    "cursors": {
      "before": "token",
      "after": "token"
    },
    "next": "https://graph.facebook.com/v8.0/2121008874780932_2498613793687103/comments?access_token=token&pretty=0&fields=created_time%2Ccan_like%2Cfrom%2Cmessage%2Cattachment%2Clike_count%2Cpermalink_url%2Cid%2Ccomment_count%2Ccan_comment&summary=1&filter=toplevel&order=chronological&limit=5&after=token"
  },
  "summary": {
    "order": "chronological",
    "total_count": 7,
    "can_comment": true
  }
}