{"data":[{"comment_count":1,"created_time":"2021-08-10T18:45:03+0000","like_count":0,"message":"Boa noite peço ajuda  Como faço para usar a minha página como meu perfil?","permalink_url":"https://www.facebook.com/19292868552/posts/10158407654328553/?comment_id=10158407835073553"},{"comment_count":2,"created_time":"2021-08-10T19:38:44+0000","like_count":0,"message":"Can someone from Instagram please assist me in getting my business Instagram back? It’s been 5 months since I’ve submitted my verification and have yet to receive a response. This is my business account and it’s effecting my livelihood 😕 Facebook for Developers","permalink_url":"https://www.facebook.com/19292868552/posts/10158407654328553/?comment_id=10158407903973553"},{"comment_count":0,"created_time":"2021-08-10T21:05:33+0000","like_count":0,"message":"Sorry no spiking English kaman sorry polski Poland Lublin senkiu 🎒🔮👻","permalink_url":"https://www.facebook.com/19292868552/posts/10158407654328553/?comment_id=10158408043788553"},{"comment_count":0,"created_time":"2021-08-11T07:13:42+0000","like_count":0,"message":"Wow that's great thank you very much","permalink_url":"https://www.facebook.com/19292868552/posts/10158407654328553/?comment_id=10158408729028553"},{"comment_count":0,"created_time":"2021-08-11T07:14:18+0000","like_count":0,"message":"The world is on Facebook. Download Facebook","permalink_url":"https://www.facebook.com/19292868552/posts/10158407654328553/?comment_id=10158408729313553"},{"comment_count":0,"created_time":"2021-08-11T23:22:14+0000","like_count":0,"message":"Hi, please access the Instagram Help Center for further assistance: http://bit.ly/2NsSg8i","permalink_url":"https://www.facebook.com/19292868552/posts/10158407654328553/?comment_id=10158407903973553&reply_comment_id=10158409983033553"},{"comment_count":0,"created_time":"2021-08-11T23:23:03+0000","like_count":0,"message":"Facebook for Developers they don’t respond 😞","permalink_url":"https://www.facebook.com/19292868552/posts/10158407654328553/?comment_id=10158407903973553&reply_comment_id=10158409984053553"},{"comment_count":0,"created_time":"2021-08-11T23:23:06+0000","like_count":0,"message":"Hi, you can learn more about the new Page experience here: https://bit.ly/33R6ys5","permalink_url":"https://www.facebook.com/19292868552/posts/10158407654328553/?comment_id=10158407835073553&reply_comment_id=10158409984103553"},{"comment_count":1,"created_time":"2021-08-12T04:15:56+0000","like_count":0,"message":"HOLA  como hago para una asesoría ","permalink_url":"https://www.facebook.com/19292868552/posts/10158407654328553/?comment_id=10158410332078553"},{"comment_count":0,"created_time":"2021-08-12T18:30:51+0000","like_count":0,"message":"Hi, check out the Facebook for Business website for more information: http://bit.ly/2PNySDX","permalink_url":"https://www.facebook.com/19292868552/posts/10158407654328553/?comment_id=10158410332078553&reply_comment_id=10158411321043553"}],"paging":{"cursors":{"before":"before","after":"after"},"next":"https://graph.facebook.com/v11.0/19292868552_10158407654328553/comments?access_token=access_token&pretty=0&fields=id%2Ccomment_count%2Ccreated_time%2Clike_count%2Cmessage%2Cpermalink_url&summary=1&filter=stream&limit=10&after=after"},"summary":{"order":"chronological","total_count":18,"can_comment":true}}