{
  "data": [
    {
      "name": "时间线照片",
      "created_time": "2012-10-29T19:46:35+0000",
      "count": 2719,
      "comments": {
        "data": [],
        "summary": {
          "order": "chronological",
          "total_count": 0
        }
      },
      "id": "372558296163354"
    },
    {
      "name": "手机上传",
      "created_time": "2014-04-12T15:28:26+0000",
      "count": 145,
      "comments": {
        "data": [],
        "summary": {
          "order": "chronological",
          "total_count": 0
        }
      },
      "id": "623202484432266"
    },
    {
      "name": "封面照片",
      "created_time": "2012-10-17T00:12:12+0000",
      "likes": {
        "data": [],
        "summary": {
          "total_count": 879,
          "can_like": true,
          "has_liked": false
        }
      },
      "count": 3,
      "comments": {
        "data": [],
        "summary": {
          "order": "chronological",
          "total_count": 308,
          "can_comment": true
        }
      },
      "id": "367178450034672"
    },
    {
      "name": "头像",
      "created_time": "2012-10-17T00:11:59+0000",
      "count": 5,
      "comments": {
        "data": [],
        "summary": {
          "order": "chronological",
          "total_count": 0
        }
      },
      "id": "367178360034681"
    },
    {
      "name": "InstaMeets!",
      "description": "IN•sta•meet (n) — a group of people who meet up to take photos, share tips and tricks, and go exploring.\n\nTo learn more about InstaMeets, connect with Instagrammers near you, or discover communities in other parts of the globe, check out community.instagram.com.\n\nEnjoy some of our favorite highlights from past InstaMeets!",
      "created_time": "2013-01-14T23:32:56+0000",
      "likes": {
        "data": [],
        "summary": {
          "total_count": 2558,
          "can_like": true,
          "has_liked": false
        }
      },
      "count": 23,
      "comments": {
        "data": [],
        "summary": {
          "order": "chronological",
          "total_count": 215,
          "can_comment": true
        }
      },
      "id": "404812106271306"
    }
  ],
  "paging": {
    "cursors": {
      "before": "before",
      "after": "after"
    },
    "next": "https://graph.facebook.com/v8.0/367152833370567/albums?access_token=token&fields=name%2Cdescription%2Ccreated_time%2Clikes.summary%28true%29.limit%280%29%2Ccount%2Ccomments.summary%28true%29.limit%280%29%2Cid&limit=5&after=after"
  }
}