{
    "data": [
        {
            "id": "10158658755326729_10158658759266729",
            "created_time": "2019-08-09T14:02:43+0000",
            "like_count": 0,
            "can_comment": true,
            "can_like": true,
            "comment_count": 0,
            "message": "Ø±Ø§Ø¦Ø¹",
            "permalink_url": "https://www.facebook.com/facebook/photos/a.10150629589136729/10158658755326729/?type=3&comment_id=10158658759266729"
        },
        {
            "id": "10158658755326729_10158658759421729",
            "created_time": "2019-08-09T14:02:48+0000",
            "like_count": 0,
            "can_comment": true,
            "can_like": true,
            "comment_count": 0,
            "message": "ğŸ˜â¤ï¸",
            "permalink_url": "https://www.facebook.com/facebook/photos/a.10150629589136729/10158658755326729/?type=3&comment_id=10158658759421729"
        },
        {
            "id": "10158658755326729_10158658759651729",
            "created_time": "2019-08-09T14:02:54+0000",
            "like_count": 1,
            "can_comment": true,
            "can_like": true,
            "comment_count": 0,
            "message": "ğŸ˜ğŸ˜ğŸ˜",
            "permalink_url": "https://www.facebook.com/facebook/photos/a.10150629589136729/10158658755326729/?type=3&comment_id=10158658759651729"
        },
        {
            "id": "10158658755326729_10158658759801729",
            "created_time": "2019-08-09T14:02:59+0000",
            "like_count": 1,
            "can_comment": true,
            "can_like": true,
            "comment_count": 0,
            "message": "YesğŸŒ¸â¤",
            "permalink_url": "https://www.facebook.com/facebook/photos/a.10150629589136729/10158658755326729/?type=3&comment_id=10158658759801729"
        },
        {
            "id": "10158658755326729_10158658759851729",
            "created_time": "2019-08-09T14:02:59+0000",
            "like_count": 0,
            "can_comment": true,
            "can_like": true,
            "comment_count": 0,
            "message": "ğŸ¤˜ğŸ´\u200dâ˜ ï¸",
            "permalink_url": "https://www.facebook.com/facebook/photos/a.10150629589136729/10158658755326729/?type=3&comment_id=10158658759851729"
        }
    ],
    "paging": {
        "cursors": {
            "before": "before",
            "after": "after"
        },
        "next": "https://graph.facebook.com/v4.0/20531316728_10158658756111729/comments?access_token=access_token&pretty=0&fields=id%2Cattachment%2Ccreated_time%2Clike_count%2Ccan_comment%2Ccan_like%2Ccomment_count%2Cfrom%2Cmessage%2Cpermalink_url&summary=1&filter=toplevel&order=chronological&limit=5&after=after"
    },
    "summary": {
        "order": "chronological",
        "total_count": 794,
        "can_comment": true
    }
}